	<Resource name="jdbc/global_shop" auth="Container" type="javax.sql.DataSource"
               maxTotal="100" maxIdle="30" maxWaitMillis="10000"
               username="root" password="1234" driverClassName="com.mysql.jdbc.Driver"
               url="jdbc:mysql://localhost:3306/lesson19"/>